module templator

go 1.20

require (
	github.com/Masterminds/goutils v1.1.1 // indirect
	github.com/Masterminds/semver/v3 v3.2.0 // indirect
	github.com/Masterminds/sprig/v3 v3.2.3 // indirect
	github.com/google/uuid v1.1.1 // indirect
	github.com/huandu/xstrings v1.3.3 // indirect
	github.com/imdario/mergo v0.3.11 // indirect
	github.com/inconshreveable/mousetrap v1.1.0 // indirect
	github.com/mitchellh/copystructure v1.0.0 // indirect
	github.com/mitchellh/reflectwalk v1.0.0 // indirect
	github.com/shopspring/decimal v1.2.0 // indirect
	github.com/spf13/cast v1.3.1 // indirect
	github.com/spf13/cobra v1.7.0 // indirect
	github.com/spf13/pflag v1.0.5 // indirect
	golang.org/x/crypto v0.3.0 // indirect
	gopkg.in/yaml.v3 v3.0.1 // indirect
)
